{"hash":"9aa6fc4199609a4def2827be26b3f097c6fcb218","data":{"snows":{"totalCount":30,"pageInfo":{"totalPages":2,"currentPage":2,"isFirst":false,"isLast":true},"edges":[{"node":{"path":"/snow/47204688a9fe1981011a20af100f381a/","id":"47204688a9fe1981011a20af100f381a","sys_id":"47204688a9fe1981011a20af100f381a","short_description":"Can't log into SAP from my laptop today","number":"INC0000044","category":"","impact":"1 - High","state":"In Progress"}},{"node":{"path":"/snow/471eb058a9fe198100f89592e1ea93d3/","id":"471eb058a9fe198100f89592e1ea93d3","sys_id":"471eb058a9fe198100f89592e1ea93d3","short_description":"My desk phone does not work","number":"INC0000041","category":"Hardware","impact":"1 - High","state":"In Progress"}},{"node":{"path":"/snow/471d4732a9fe198100affbf655e59172/","id":"471d4732a9fe198100affbf655e59172","sys_id":"471d4732a9fe198100affbf655e59172","short_description":"JavaScript error on hiring page of corporate website","number":"INC0000040","category":"Inquiry / Help","impact":"2 - Medium","state":"On Hold"}},{"node":{"path":"/snow/471bfbc7a9fe198101e77a3e10e5d47f/","id":"471bfbc7a9fe198101e77a3e10e5d47f","sys_id":"471bfbc7a9fe198101e77a3e10e5d47f","short_description":"Trouble getting to Oregon mail server","number":"INC0000039","category":"Network","impact":"3 - Low","state":"New"}},{"node":{"path":"/snow/4715ab62a9fe1981018c3efb96143495/","id":"4715ab62a9fe1981018c3efb96143495","sys_id":"4715ab62a9fe1981018c3efb96143495","short_description":"Request for a new service","number":"INC0000037","category":"Inquiry / Help","impact":"1 - High","state":"In Progress"}},{"node":{"path":"/snow/47064b68a9fe19810186793eefffc9b7/","id":"47064b68a9fe19810186793eefffc9b7","sys_id":"47064b68a9fe19810186793eefffc9b7","short_description":"Need help with Remedy. Can we configure UI?","number":"INC0000031","category":"Inquiry / Help","impact":"1 - High","state":"In Progress"}},{"node":{"path":"/snow/46f4f4dfa9fe198100063e60278f76ec/","id":"46f4f4dfa9fe198100063e60278f76ec","sys_id":"46f4f4dfa9fe198100063e60278f76ec","short_description":"Please remove the latest hotfix from my PC","number":"INC0000027","category":"Software","impact":"1 - High","state":"In Progress"}},{"node":{"path":"/snow/46f09e75a9fe198100f4ffd8d366d17b/","id":"46f09e75a9fe198100f4ffd8d366d17b","sys_id":"46f09e75a9fe198100f4ffd8d366d17b","short_description":"Need to add more memory to laptop","number":"INC0000025","category":"Hardware","impact":"1 - High","state":"In Progress"}},{"node":{"path":"/snow/46edaa6aa9fe198101b9d14ced16619f/","id":"46edaa6aa9fe198101b9d14ced16619f","sys_id":"46edaa6aa9fe198101b9d14ced16619f","short_description":"I need a replacement iPhone, please","number":"INC0000020","category":"Inquiry / Help","impact":"3 - Low","state":"In Progress"}},{"node":{"path":"/snow/46e8219ba9fe1981013806b6e04fed06/","id":"46e8219ba9fe1981013806b6e04fed06","sys_id":"46e8219ba9fe1981013806b6e04fed06","short_description":"Can't launch 64-bit Windows 7 virtual machine","number":"INC0000019","category":"Software","impact":"2 - Medium","state":"In Progress"}},{"node":{"path":"/snow/46e57642a9fe1981000b96a5dca501ff/","id":"46e57642a9fe1981000b96a5dca501ff","sys_id":"46e57642a9fe1981000b96a5dca501ff","short_description":"Sales forecast spreadsheet is READ ONLY","number":"INC0000018","category":"","impact":"1 - High","state":"In Progress"}},{"node":{"path":"/snow/46e482d9a9fe198101d3e3f3e2a14459/","id":"46e482d9a9fe198101d3e3f3e2a14459","sys_id":"46e482d9a9fe198101d3e3f3e2a14459","short_description":"How do I create a sub-folder","number":"INC0000017","category":"Inquiry / Help","impact":"1 - High","state":"On Hold"}},{"node":{"path":"/snow/46e3e949a9fe19810069b824ba2c761a/","id":"46e3e949a9fe19810069b824ba2c761a","sys_id":"46e3e949a9fe19810069b824ba2c761a","short_description":"Rain is leaking on main DNS Server","number":"INC0000016","category":"Hardware","impact":"1 - High","state":"In Progress"}},{"node":{"path":"/snow/46e2fee9a9fe19810049b49dee0daf58/","id":"46e2fee9a9fe19810049b49dee0daf58","sys_id":"46e2fee9a9fe19810049b49dee0daf58","short_description":"I can't launch my VPN client since the last software update","number":"INC0000015","category":"Software","impact":"1 - High","state":"In Progress"}},{"node":{"path":"/snow/14cfe773071333000f5ef7108c1ed0b2/","id":"14cfe773071333000f5ef7108c1ed0b2","sys_id":"14cfe773071333000f5ef7108c1ed0b2","short_description":"REST POST DEMO","number":"INC0010001","category":"Software","impact":"3 - Low","state":"New"}}]}},"context":{}}