{"hash":"9aa6fc4199609a4def2827be26b3f097c6fcb218","data":{"notes":{"totalCount":8,"pageInfo":{"totalPages":2,"currentPage":2,"isFirst":false,"isLast":true},"edges":[{"node":{"title":"Angular på platformen","path":"/note/2018/angular-paa-platformen/"}},{"node":{"title":"Caller, Assigned to og Number er tomme i mail","path":"/note/2018/caller-assigned-number/"}},{"node":{"title":"Delta tests om Madrid","path":"/note/2018/delta-tests-madrid/"}}]}},"context":{}}