{"hash":"9aa6fc4199609a4def2827be26b3f097c6fcb218","data":{"snows":{"totalCount":30,"pageInfo":{"totalPages":2,"currentPage":1,"isFirst":true,"isLast":false},"edges":[{"node":{"path":"/snow/d7195138c0a8016700fd68449cfcd484/","id":"d7195138c0a8016700fd68449cfcd484","sys_id":"d7195138c0a8016700fd68449cfcd484","short_description":"SAP Financial Accounting application appears to be down","number":"INC0000052","category":"Software","impact":"1 - High","state":"In Progress"}},{"node":{"path":"/snow/d7158da0c0a8016700eef46c8d1f3661/","id":"d7158da0c0a8016700eef46c8d1f3661","sys_id":"d7158da0c0a8016700eef46c8d1f3661","short_description":"Manager can't access SAP Controlling application","number":"INC0000051","category":"Software","impact":"1 - High","state":"In Progress"}},{"node":{"path":"/snow/d6823b77075733000f5ef7108c1ed04b/","id":"d6823b77075733000f5ef7108c1ed04b","sys_id":"d6823b77075733000f5ef7108c1ed04b","short_description":"REST POST DEMO punktum i navn = user_name","number":"INC0010002","category":"Hardware","impact":"3 - Low","state":"New"}},{"node":{"path":"/snow/a9e428cac61122760075710592216c58/","id":"a9e428cac61122760075710592216c58","sys_id":"a9e428cac61122760075710592216c58","short_description":"Having problems with Sales Tools performance","number":"INC0000048","category":"","impact":"2 - Medium","state":"On Hold"}},{"node":{"path":"/snow/a9e30c7dc61122760116894de7bcc7bd/","id":"a9e30c7dc61122760116894de7bcc7bd","sys_id":"a9e30c7dc61122760116894de7bcc7bd","short_description":"Can't access SFA software","number":"INC0000046","category":"Software","impact":"1 - High","state":"New"}},{"node":{"path":"/snow/a9a16740c61122760004fe9095b7ddca/","id":"a9a16740c61122760004fe9095b7ddca","sys_id":"a9a16740c61122760004fe9095b7ddca","short_description":"Issue with email","number":"INC0000047","category":"Inquiry / Help","impact":"2 - Medium","state":"In Progress"}},{"node":{"path":"/snow/a623cdb073a023002728660c4cf6a768/","id":"a623cdb073a023002728660c4cf6a768","sys_id":"a623cdb073a023002728660c4cf6a768","short_description":"Unable to post content on a Wiki page","number":"INC0009001","category":"Inquiry / Help","impact":"2 - Medium","state":"New"}},{"node":{"path":"/snow/9d385017c611228701d22104cc95c371/","id":"9d385017c611228701d22104cc95c371","sys_id":"9d385017c611228701d22104cc95c371","short_description":"Network file shares access issue","number":"INC0000002","category":"Network","impact":"1 - High","state":"On Hold"}},{"node":{"path":"/snow/965c9e5347c12200e0ef563dbb9a7156/","id":"965c9e5347c12200e0ef563dbb9a7156","sys_id":"965c9e5347c12200e0ef563dbb9a7156","short_description":"Performance problems with email","number":"INC0000058","category":"Inquiry / Help","impact":"3 - Low","state":"New"}},{"node":{"path":"/snow/8d6353eac0a8016400d8a125ca14fc1f/","id":"8d6353eac0a8016400d8a125ca14fc1f","sys_id":"8d6353eac0a8016400d8a125ca14fc1f","short_description":"Need access to sales DB for the West","number":"INC0000007","category":"Database","impact":"1 - High","state":"On Hold"}},{"node":{"path":"/snow/85071a1347c12200e0ef563dbb9a71c1/","id":"85071a1347c12200e0ef563dbb9a71c1","sys_id":"85071a1347c12200e0ef563dbb9a71c1","short_description":"Unable to access team file share","number":"INC0000059","category":"Inquiry / Help","impact":"2 - Medium","state":"New"}},{"node":{"path":"/snow/78271e1347c12200e0ef563dbb9a7109/","id":"78271e1347c12200e0ef563dbb9a7109","sys_id":"78271e1347c12200e0ef563dbb9a7109","short_description":"Performance problems with wifi","number":"INC0000057","category":"Inquiry / Help","impact":"3 - Low","state":"New"}},{"node":{"path":"/snow/6a3473f307d333000f5ef7108c1ed0c3/","id":"6a3473f307d333000f5ef7108c1ed0c3","sys_id":"6a3473f307d333000f5ef7108c1ed0c3","short_description":"REST POST DEMO punktum i navn = user_name","number":"INC0010003","category":"Software","impact":"3 - Low","state":"New"}},{"node":{"path":"/snow/57af7aec73d423002728660c4cf6a71c/","id":"57af7aec73d423002728660c4cf6a71c","sys_id":"57af7aec73d423002728660c4cf6a71c","short_description":"Unable to access the shared folder.","number":"INC0009009","category":"Inquiry / Help","impact":"3 - Low","state":"New"}},{"node":{"path":"/snow/5264f7f7075733000f5ef7108c1ed00c/","id":"5264f7f7075733000f5ef7108c1ed00c","sys_id":"5264f7f7075733000f5ef7108c1ed00c","short_description":"REST POST DEMO punktum i navn = user_name","number":"INC0010004","category":"Software","impact":"3 - Low","state":"New"}}]}},"context":{}}