{"hash":"9aa6fc4199609a4def2827be26b3f097c6fcb218","data":{"notes":{"totalCount":8,"pageInfo":{"totalPages":2,"currentPage":1,"isFirst":true,"isLast":false},"edges":[{"node":{"title":"Eniig Enterprise IMPL0001452 - Udfordringer med beskeder ud til Caller","path":"/note/2018/enterprise-udfordringer-beskeder-caller/"}},{"node":{"title":"Bulma versus Bootstrap","path":"/note/2019/bulma-versus-bootstrap/"}},{"node":{"title":"Fitness World - Case - Member email unavailable warning","path":"/note/2018/member-email-unavailable-warning/"}},{"node":{"title":"PROJT0001565 - rettelse til request counter","path":"/note/2019/rettelse-request-counter/"}},{"node":{"title":"Case Basis setup CSM 1","path":"/note/2018/case-basis-setup-csm/"}}]}},"context":{}}